<svg width="146" height="126" viewBox="0 0 146 126" fill="none" xmlns="http://www.w3.org/2000/svg">
<path d="M102.284 57.4466L111.629 66.7916C113.364 68.5259 116.175 68.5259 117.91 66.7916L142.697 42.0042C144.431 40.27 144.431 37.4582 142.697 35.724L133.352 26.379C131.618 24.6447 128.806 24.6447 127.072 26.379L102.284 51.1664C100.55 52.9006 100.55 55.7124 102.284 57.4466Z" stroke="#0C2026" stroke-miterlimit="10"/>
<path d="M124.841 28.6229L102.082 5.86389C100.952 4.73234 99.6034 3.84372 98.1179 3.25266C96.6324 2.66159 95.0417 2.38055 93.4436 2.42683L58.4648 3.41538L104.264 49.2223L124.841 28.6229Z" stroke="#0C2026" stroke-miterlimit="10"/>
<path d="M98.0102 42.9744L82.4142 27.3784L63.0391 45.9324L79.4563 62.3496L98.0102 42.9744Z" stroke="#0C2026" stroke-miterlimit="10"/>
<path d="M6.70109 99.8678C5.58666 100.987 4.96094 102.501 4.96094 104.08C4.96094 105.66 5.58666 107.174 6.70109 108.293L17.1035 118.688C17.6558 119.241 18.3118 119.68 19.034 119.98C19.7562 120.279 20.5304 120.434 21.3123 120.434C22.0942 120.434 22.8684 120.279 23.5906 119.98C24.3128 119.68 24.9688 119.241 25.5212 118.688L62.7127 79.8462L45.5503 62.6762L6.70109 99.8678Z" stroke="#0C2026" stroke-miterlimit="10"/>
<path d="M63.0401 45.9368L51.1777 34.0669C49.9531 38.1064 47.7521 41.7819 44.7694 44.7686C41.7866 47.7553 38.114 49.9612 34.0762 51.1913L45.5735 62.681" stroke="#0C2026" stroke-miterlimit="10"/>
<path d="M62.7129 79.8396L74.811 91.9377C76.0378 87.8956 78.2422 84.2183 81.2291 81.2314C84.216 78.2445 87.8933 76.0401 91.9353 74.8133L79.4647 62.3426" stroke="#0C2026" stroke-miterlimit="10"/>
<path d="M1.87283 20.0079L17.5676 35.7027L34.692 18.5859L18.4497 2.34358C23.8642 0.518236 29.7332 0.553703 35.1252 2.44434C40.5172 4.33498 45.1232 7.97246 48.2121 12.7794C51.301 17.5864 52.6959 23.2873 52.1752 28.9774C51.6545 34.6675 49.2482 40.0207 45.3382 44.1872C41.4281 48.3537 36.2384 51.0949 30.5929 51.9755C24.9473 52.8562 19.1693 51.8259 14.176 49.0482C9.18278 46.2705 5.26037 41.9045 3.03142 36.6433C0.802474 31.3822 0.394701 25.5272 1.87283 20.0079V20.0079Z" stroke="#0C2026" stroke-miterlimit="10"/>
<path d="M74.8102 91.9394C76.7941 85.5419 81.2026 80.1747 87.0928 76.9857C92.9829 73.7968 99.8871 73.0392 106.329 74.8751C112.77 76.711 118.238 80.9946 121.561 86.8096C124.885 92.6247 125.802 99.5096 124.115 105.992L108.42 90.2969L91.2958 107.414L107.538 123.671C103.079 125.166 98.295 125.405 93.709 124.364C89.123 123.322 84.9119 121.039 81.5363 117.765C78.1606 114.49 75.7505 110.35 74.5696 105.798C73.3887 101.246 73.4824 96.457 74.8406 91.9546L74.8102 91.9394Z" stroke="#0C2026" stroke-miterlimit="10"/>
</svg>
