<svg width="129" height="136" viewBox="0 0 129 136" fill="none" xmlns="http://www.w3.org/2000/svg">
<path d="M67.3208 88.7885C76.8827 87.2364 83.3759 78.2267 81.8238 68.6648C80.2717 59.1029 71.262 52.6097 61.7001 54.1618C52.1382 55.7139 45.645 64.7236 47.1971 74.2855C48.7492 83.8474 57.7589 90.3407 67.3208 88.7885Z" stroke="#0C2026" stroke-miterlimit="10"/>
<path d="M107.512 80.558V62.4187H96.2017C95.5166 60.0106 94.5552 57.6898 93.3366 55.5026L101.333 47.5067L88.4991 34.6544L80.5031 42.6504C78.3072 41.4285 75.9783 40.463 73.562 39.7728V28.4686H55.4228V39.7728C53.0065 40.463 50.6776 41.4285 48.4817 42.6504L40.4857 34.6544L27.6585 47.4817L35.6544 55.5026C34.4386 57.6911 33.4773 60.0116 32.7894 62.4187H21.4727V80.558H32.7894C33.4795 82.9742 34.445 85.3032 35.6669 87.499L27.6709 95.495L40.4982 108.322L48.4942 100.326C50.689 101.549 53.0183 102.512 55.4353 103.198V114.508H73.5745V103.198C75.9915 102.512 78.3208 101.549 80.5156 100.326L88.5115 108.322L101.339 95.495L93.3366 87.499C94.5591 85.3043 95.5226 82.975 96.2079 80.558H107.512ZM64.4924 89.0283C61.0233 89.0283 57.6321 87.9996 54.7477 86.0723C51.8633 84.145 49.6151 81.4056 48.2876 78.2006C46.96 74.9956 46.6127 71.4689 47.2894 68.0665C47.9662 64.6641 49.6367 61.5387 52.0898 59.0857C54.5428 56.6327 57.6681 54.9622 61.0705 54.2854C64.4729 53.6086 67.9996 53.956 71.2046 55.2835C74.4097 56.6111 77.149 58.8592 79.0763 61.7437C81.0037 64.6281 82.0324 68.0193 82.0324 71.4883C82.0324 73.7917 81.5787 76.0726 80.6972 78.2006C79.8157 80.3287 78.5238 82.2623 76.895 83.891C75.2663 85.5197 73.3327 86.8117 71.2046 87.6932C69.0766 88.5746 66.7958 89.0283 64.4924 89.0283Z" stroke="#0C2026" stroke-miterlimit="10"/>
<path d="M64.4935 96.9383C78.5483 96.9383 89.942 85.5446 89.942 71.4897C89.942 57.4349 78.5483 46.0412 64.4935 46.0412C50.4386 46.0412 39.0449 57.4349 39.0449 71.4897C39.0449 85.5446 50.4386 96.9383 64.4935 96.9383Z" stroke="#0C2026" stroke-width="0.93" stroke-miterlimit="10"/>
<path d="M58.3887 14.9821L64.4996 7.72264L58.5634 1" stroke="#0C2026" stroke-width="0.84" stroke-miterlimit="10"/>
<path d="M112.691 101.222L114.676 110.504L123.627 109.936" stroke="#0C2026" stroke-width="0.84" stroke-miterlimit="10"/>
<path d="M17.6586 102.277L8.24569 101.06L5.79883 109.686" stroke="#0C2026" stroke-width="0.84" stroke-miterlimit="10"/>
<path d="M1 71.492C1.00166 54.6513 7.69231 38.5009 19.6005 26.5927C31.5086 14.6846 47.659 7.9939 64.4997 7.99224" stroke="#0C2026" stroke-width="0.84" stroke-miterlimit="10"/>
<path d="M94.2027 127.618C79.3177 135.484 61.9196 137.124 45.8272 132.176C29.7348 127.228 16.2631 116.097 8.36914 101.226" stroke="#0C2026" stroke-width="0.84" stroke-miterlimit="10"/>
<path d="M96.0215 16.3487C103.909 20.8605 110.736 27.012 116.042 34.3878C121.349 41.7636 125.011 50.1921 126.782 59.1042C128.553 68.0163 128.391 77.2047 126.307 86.0489C124.224 94.8931 120.267 103.187 114.704 110.372" stroke="#0C2026" stroke-width="0.84" stroke-miterlimit="10"/>
</svg>
